Division,WeightClassKg,Place,Name,Team,BodyweightKg,Best3SquatKg,Best3BenchKg,Best3DeadliftKg,TotalKg,Equipment,Event,Sex,BirthDate
Boys,51.71,1,Malachi Flores,Plainview,49.99,133.81,70.31,142.88,347,Single-ply,SBD,M,
Boys,55.79,1,Isaiah Reyes,Plainview,54.84,142.88,81.65,158.76,383.29,Single-ply,SBD,M,
Boys,55.79,2,Xayvion Gonzalez,Dimmitt,55.75,92.99,70.31,124.74,288.03,Single-ply,SBD,M,
Boys,55.79,3,Chris Minor,Ralls,52.3,102.06,68.04,106.59,276.69,Single-ply,SBD,M,
Boys,59.87,1,Gabriel Reyes,Dimmitt,59.87,142.88,92.99,183.7,419.57,Single-ply,SBD,M,
Boys,59.87,2,Lizandro Rocha,Dimmitt,56.15,102.06,65.77,133.81,301.64,Single-ply,SBD,M,
Boys,67.13,1,Trae Zavala III,Ralls,63.19,158.76,108.86,165.56,433.18,Single-ply,SBD,M,
Boys,67.13,2,Hamilton Mitchell,Lubbock Cooper,66.22,145.15,90.72,172.37,408.23,Single-ply,SBD,M,
Boys,67.13,3,Alejandro Garcia,Plainview,60.19,154.22,83.91,167.83,405.97,Single-ply,SBD,M,
Boys,67.13,4,Sedric Mirelez,Dimmitt,66.9,92.99,79.38,163.29,335.66,Single-ply,SBD,M,
Boys,67.13,5,Jorge Bo Hernandez,Dimmitt,63.32,117.93,70.31,142.88,331.12,Single-ply,SBD,M,
Boys,67.13,DQ,Maximus Foster,Canyon Randall,67.13,,,,,Single-ply,SBD,M,
Boys,74.84,1,Izik Godino,Plainview,68.86,183.7,104.33,172.37,460.4,Single-ply,SBD,M,
Boys,74.84,2,Alexis Delgado #2,Plainview,69.67,174.63,83.91,165.56,424.11,Single-ply,SBD,M,
Boys,74.84,3,Sabian Martinez,Dimmitt,72.17,151.95,111.13,151.95,415.04,Single-ply,SBD,M,
Boys,74.84,4,Roger Marquez,Plainview,70.13,158.76,88.45,165.56,412.77,Single-ply,SBD,M,
Boys,74.84,5,David White,Lubbock Cooper,71.44,149.69,90.72,142.88,383.29,Single-ply,SBD,M,
Boys,74.84,6,Jordan Casas,Dimmitt,73.75,124.74,79.38,142.88,347,Single-ply,SBD,M,
Boys,74.84,7,Phenix Adams,Lubbock Cooper,70.03,133.81,79.38,124.74,337.93,Single-ply,SBD,M,
Boys,74.84,8,Jose Sauceda,Ralls,72.12,113.4,68.04,111.13,292.57,Single-ply,SBD,M,
Boys,82.1,1,Jacob Lewis,Canyon Randall,77.66,190.51,120.2,197.31,508.02,Single-ply,SBD,M,
Boys,82.1,2,Rigoverto Medina,Lubbock Cooper,76.75,195.04,113.4,192.78,501.22,Single-ply,SBD,M,
Boys,82.1,3,Mason Gallarneau,Lubbock Cooper,80.88,188.24,102.06,181.44,471.74,Single-ply,SBD,M,
Boys,82.1,4,Zachary Collins,Plainview,79.06,188.24,99.79,176.9,464.93,Single-ply,SBD,M,
Boys,82.1,5,Jeremiah Guitron,Plainview,75.61,165.56,90.72,163.29,419.57,Single-ply,SBD,M,
Boys,82.1,6,Ilir Haliti,Canyon Randall,80.74,142.88,106.59,167.83,417.3,Single-ply,SBD,M,
Boys,82.1,7,Damian Arriaga,Dimmitt,81.6,151.95,99.79,165.56,417.3,Single-ply,SBD,M,
Boys,82.1,8,Angel Catalan,Dimmitt,78.88,106.59,95.25,140.61,342.46,Single-ply,SBD,M,
Boys,82.1,9,Eszequiel Vidal,Dimmitt,80.06,102.06,83.91,142.88,328.85,Single-ply,SBD,M,
Boys,89.81,1,Jonathan Gonzalez,Plainview,84.23,226.8,149.69,215.46,591.94,Single-ply,SBD,M,
Boys,89.81,2,Marcos Del Fierro,Canyon Randall,86.18,183.7,151.95,174.63,510.29,Single-ply,SBD,M,
Boys,89.81,3,Charles Stringer,Canyon Randall,84.55,147.42,108.86,167.83,424.11,Single-ply,SBD,M,
Boys,89.81,DQ,Sergio Ramos,Dimmitt,89.81,,,,,Single-ply,SBD,M,
Boys,99.79,1,Gerardo Gonzalez,Dimmitt,93.58,197.31,113.4,249.48,560.19,Single-ply,SBD,M,
Boys,99.79,2,Jaquim Rodriguez,Lubbock Cooper,92.71,201.85,117.93,183.7,503.49,Single-ply,SBD,M,
Boys,99.79,3,Nathan Carrillo,Plainview,99.38,190.51,104.33,167.83,462.66,Single-ply,SBD,M,
Boys,99.79,4,Zachary Barrientes,Lubbock Cooper,91.4,181.44,90.72,167.83,439.98,Single-ply,SBD,M,
Boys,99.79,DQ,Hagen Reinhardt,Canyon Randall,99.79,,,,,Single-ply,SBD,M,
Boys,109.77,3,Jasiah Tavarez,Dimmitt,102.51,106.59,63.5,136.08,306.17,Single-ply,SBD,M,
Boys,124.74,1,Derek Mata,Plainview,114.8,183.7,127.01,167.83,478.54,Single-ply,SBD,M,
Boys,124.74,2,Zane Mendez,Ralls,115.48,179.17,90.72,165.56,435.45,Single-ply,SBD,M,
Boys,139.71,1,John Peralez,Lubbock Cooper,126.78,201.85,167.83,213.19,582.87,Single-ply,SBD,M,
Boys,139.71,2,Nathaniel Norgaard,Ralls,130.04,95.25,65.77,108.86,269.89,Single-ply,SBD,M,
