Division,WeightClassKg,Place,Name,Team,BodyweightKg,Best3SquatKg,Best3BenchKg,Best3DeadliftKg,TotalKg,Equipment,Event,Sex,BirthDate
Boys,51.71,1,Carlos Bolivar,Cameron Yoe,46.72,138.35,74.84,147.42,360.61,Single-ply,SBD,M,
Boys,51.71,2,Wyatt Smith,Rockdale,49.8,68.04,52.16,86.18,206.38,Single-ply,SBD,M,
Boys,55.79,1,Cody Krupala,La Grange,55.7,142.88,88.45,124.74,356.07,Single-ply,SBD,M,
Boys,55.79,2,Blake Zalobny,Caldwell,52.25,83.91,43.09,106.59,233.6,Single-ply,SBD,M,
Boys,59.87,1,Darren Carter,Rockdale,59.6,149.69,86.18,154.22,390.09,Single-ply,SBD,M,
Boys,59.87,2,Payton Zeplin,Thrall,57.33,117.93,65.77,124.74,308.44,Single-ply,SBD,M,
Boys,59.87,3,Braide Nelson,Caldwell,59.42,92.99,45.36,102.06,240.4,Single-ply,SBD,M,
Boys,67.13,1,Jake Bartnick,Little River Academy,60.78,183.7,113.4,201.85,498.95,Single-ply,SBD,M,
Boys,67.13,2,Kevin Liu,Rockdale,66.77,183.7,102.06,192.78,478.54,Single-ply,SBD,M,
Boys,67.13,3,Ivan Granados,Caldwell,62.6,161.03,83.91,188.24,433.18,Single-ply,SBD,M,
Boys,67.13,4,Devon Johnson,La Grange,65.32,158.76,102.06,136.08,396.89,Single-ply,SBD,M,
Boys,67.13,5,Tyler Sellars,Little River Academy,65.68,115.67,88.45,158.76,362.87,Single-ply,SBD,M,
Boys,67.13,6,Max Finn,Thrall,62.69,131.54,77.11,147.42,356.07,Single-ply,SBD,M,
Boys,67.13,7,Bryson Weaver,Rockdale,63.59,129.27,77.11,127.01,333.39,Single-ply,SBD,M,
Boys,67.13,8,Michael Machala,Thrall,60.06,106.59,68.04,136.08,310.71,Single-ply,SBD,M,
Boys,67.13,9,Payton Pipkin,Thrall,60.51,113.4,56.7,131.54,301.64,Single-ply,SBD,M,
Boys,67.13,10,Dawson Gilmore,Thrall,67.13,83.91,68.04,111.13,263.08,Single-ply,SBD,M,
Boys,67.13,DQ,DeVontae Jackson,Cameron Yoe,65.59,156.49,,,,Single-ply,SBD,M,
Boys,74.84,1,Aj Hernandez,Thorndale,73.75,170.1,117.93,192.78,480.81,Single-ply,SBD,M,
Boys,74.84,2,Luke Merz,Thorndale,74.03,183.7,111.13,179.17,474,Single-ply,SBD,M,
Boys,74.84,3,Anthony Vicknair,Thorndale,74.75,165.56,113.4,161.03,439.98,Single-ply,SBD,M,
Boys,74.84,4,Noah Crabtree,Thorndale,72.3,158.76,102.06,165.56,426.38,Single-ply,SBD,M,
Boys,74.84,5,Jacob Marshall,Giddings,69.22,147.42,115.67,151.95,415.04,Single-ply,SBD,M,
Boys,74.84,6,Evan Young,Giddings,74.75,142.88,83.91,154.22,381.02,Single-ply,SBD,M,
Boys,74.84,7,Tristan Kerlin,Thorndale,68.67,124.74,83.91,142.88,351.53,Single-ply,SBD,M,
Boys,82.1,1,Bryce Flowers,Rockdale,77.38,238.14,129.27,222.26,589.67,Single-ply,SBD,M,
Boys,82.1,2,Trace Riggs,Thrall,78.29,201.85,122.47,201.85,526.17,Single-ply,SBD,M,
Boys,82.1,3,Landon Little,La Grange,81.37,174.63,115.67,181.44,471.74,Single-ply,SBD,M,
Boys,82.1,4,Hayden Heselmeyer,Thrall,81.01,172.37,104.33,181.44,458.13,Single-ply,SBD,M,
Boys,82.1,5,Luke Pearson,Thrall,80.56,151.95,111.13,163.29,426.38,Single-ply,SBD,M,
Boys,82.1,6,Noah Hammack,Thrall,80.38,142.88,104.33,165.56,412.77,Single-ply,SBD,M,
Boys,82.1,7,Ely Glisson,La Grange,81.47,124.74,65.77,127.01,317.51,Single-ply,SBD,M,
Boys,89.81,1,Cullen Dees,Giddings,85.91,199.58,147.42,147.42,494.42,Single-ply,SBD,M,
Boys,89.81,2,Justin Balcar,Caldwell,84.46,183.7,124.74,183.7,492.15,Single-ply,SBD,M,
Boys,89.81,3,Blaydn Barcak,Rockdale,82.83,158.76,124.74,181.44,464.93,Single-ply,SBD,M,
Boys,89.81,4,Austin Grooms,La Grange,87.18,142.88,102.06,151.95,396.89,Single-ply,SBD,M,
Boys,89.81,5,Quendra Straughter,Hearne,87.27,142.88,86.18,140.61,369.68,Single-ply,SBD,M,
Boys,89.81,6,Ben Symms,Giddings,86.18,92.99,65.77,113.4,272.16,Single-ply,SBD,M,
Boys,89.81,DQ,Travis Balcar,Caldwell,85.64,183.7,,,,Single-ply,SBD,M,
Boys,99.79,1,Easton Kylberg,Giddings,99.16,256.28,181.44,260.82,698.53,Single-ply,SBD,M,
Boys,99.79,2,Daniel Gardiner,Rockdale,98.79,238.14,124.74,219.99,582.87,Single-ply,SBD,M,
Boys,99.79,3,Tyler Burnett,Little River Academy,98.16,199.58,145.15,222.26,566.99,Single-ply,SBD,M,
Boys,99.79,4,Caden Berry,Little River Academy,98.34,206.38,136.08,208.65,551.11,Single-ply,SBD,M,
Boys,99.79,5,Jose Aboytes,Rockdale,97.25,206.38,113.4,192.78,512.56,Single-ply,SBD,M,
Boys,99.79,6,Tristin Rupe,Rockdale,92.9,195.04,120.2,183.7,498.95,Single-ply,SBD,M,
Boys,99.79,7,Nick Ramirez,Thorndale,93.8,176.9,115.67,158.76,451.32,Single-ply,SBD,M,
Boys,99.79,8,Favian Gutierrez,La Grange,99.25,174.63,106.59,165.56,446.79,Single-ply,SBD,M,
Boys,99.79,9,Jim Jackson,Caldwell,99.79,172.37,108.86,158.76,439.98,Single-ply,SBD,M,
Boys,99.79,10,Kaleb Quilty,Little River Academy,99.34,145.15,102.06,190.51,437.72,Single-ply,SBD,M,
Boys,99.79,11,Lee Frank,Hearne,91.99,165.56,88.45,174.63,428.64,Single-ply,SBD,M,
Boys,99.79,12,Deven Cuba,Thorndale,94.17,127.01,111.13,181.44,419.57,Single-ply,SBD,M,
Boys,109.77,1,Gavin Aguilar,Rockdale,109.32,281.23,183.7,260.82,725.75,Single-ply,SBD,M,
Boys,109.77,2,Hayden Meng,La Grange,105.6,238.14,122.47,238.14,598.74,Single-ply,SBD,M,
Boys,109.77,3,Garfield England,Cameron Yoe,107.14,219.99,156.49,208.65,585.13,Single-ply,SBD,M,
Boys,109.77,4,Kaleb Yount,Thorndale,108.86,206.38,127.01,215.46,548.85,Single-ply,SBD,M,
Boys,109.77,5,Anthony Weikel,La Grange,105.41,215.46,120.2,199.58,535.24,Single-ply,SBD,M,
Boys,109.77,6,Tyler Bonkowski,Thrall,103.78,199.58,124.74,204.12,528.44,Single-ply,SBD,M,
Boys,109.77,7,Jaycob Raz,Giddings,109.77,192.78,115.67,190.51,498.95,Single-ply,SBD,M,
Boys,109.77,8,Adam Caddell,Little River Academy,100.79,183.7,111.13,192.78,487.61,Single-ply,SBD,M,
Boys,109.77,9,Jose Galan,Giddings,103.78,183.7,111.13,185.97,480.81,Single-ply,SBD,M,
Boys,109.77,10,William Davenport,Rockdale,107.23,181.44,122.47,156.49,460.4,Single-ply,SBD,M,
Boys,109.77,11,Alex Inocencio,Thorndale,101.79,174.63,117.93,142.88,435.45,Single-ply,SBD,M,
Boys,109.77,12,Jamariyon Benford,Hearne,105.41,158.76,115.67,154.22,428.64,Single-ply,SBD,M,
Boys,109.77,13,Austin Williams,La Grange,109.5,158.76,97.52,151.95,408.23,Single-ply,SBD,M,
Boys,124.74,1,Hayden Splawn,La Grange,112.67,195.04,136.08,201.85,532.97,Single-ply,SBD,M,
Boys,124.74,2,Cooper Imoff,La Grange,115.03,192.78,133.81,192.78,519.36,Single-ply,SBD,M,
Boys,124.74,DQ,Dylan Edelbrock,Little River Academy,123.83,,,,,Single-ply,SBD,M,
Boys,139.71,1,Orlando Feregrino,Little River Academy,132.36,192.78,149.69,215.46,557.92,Single-ply,SBD,M,
Boys,139.71,2,Miles Grear,Rockdale,136.71,226.8,117.93,167.83,512.56,Single-ply,SBD,M,
Boys,139.71,3,Kevin Ramirez,Giddings,133.27,147.42,127.01,172.37,446.79,Single-ply,SBD,M,
Boys,139.71,DQ,Garret Tittle,Caldwell,138.98,249.48,161.03,,,Single-ply,SBD,M,
Boys,139.71+,1,Ryleigh O'Campo,Thrall,140.07,294.84,151.95,226.8,673.58,Single-ply,SBD,M,
