Division,WeightClassKg,Place,Name,Team,BodyweightKg,Best3SquatKg,Best3BenchKg,Best3DeadliftKg,TotalKg,Equipment,Event,Sex
Boys,51.71,1,Angel Garcia #6,Edinburg Idea College Prep,51.26,176.9,106.59,185.97,469.47,Single-ply,SBD,M
Boys,51.71,2,Justin Hernandez,Weslaco East,51.17,149.69,86.18,190.51,426.38,Single-ply,SBD,M
Boys,51.71,3,Javier Farias,Mission,50.8,154.22,68.04,185.97,408.23,Single-ply,SBD,M
Boys,51.71,4,Leo Martinez,Rio Grande City,50.8,149.69,97.52,149.69,396.89,Single-ply,SBD,M
Boys,51.71,5,Joey Rodriguez,Edinburg Idea College Prep,50.35,142.88,77.11,140.61,360.61,Single-ply,SBD,M
Boys,51.71,6,Jesus Puente,La Joya Palmview,50.8,138.35,68.04,147.42,353.8,Single-ply,SBD,M
Boys,51.71,7,Fernando Gonzalez,McAllen Memorial,50.35,115.67,81.65,149.69,347,Single-ply,SBD,M
Boys,51.71,8,Fabian Garcia,Edinburg Idea College Prep,48.99,120.2,72.57,131.54,324.32,Single-ply,SBD,M
Boys,51.71,9,Kevin Garcia,Edinburg Vela,49.9,120.2,74.84,124.74,319.78,Single-ply,SBD,M
Boys,51.71,10,Epling Seth,Sharyland Pioneer,51.71,79.38,56.7,117.93,254.01,Single-ply,SBD,M
Boys,51.71,11,Martin Alaniz,Sharyland Pioneer,50.8,88.45,52.16,111.13,251.74,Single-ply,SBD,M
Boys,51.71,DQ,Tommy Livgni,McAllen Memorial,49.44,47.63,38.56,65.77,,Single-ply,SBD,M
Boys,55.79,1,Kevin Trevino,McAllen Memorial,54.88,145.15,106.59,154.22,405.97,Single-ply,SBD,M
Boys,55.79,2,Adrian Garcia,Edinburg Idea College Prep,55.34,161.03,92.99,149.69,403.7,Single-ply,SBD,M
Boys,55.79,3,Elijah Wheeler,Edinburg Idea College Prep,55.34,136.08,70.31,151.95,358.34,Single-ply,SBD,M
Boys,55.79,4,Richard Vasquez,Weslaco East,52.71,142.88,72.57,136.08,351.53,Single-ply,SBD,M
Boys,55.79,5,Kenneth Garcia,Edinburg Vela,54.43,113.4,68.04,124.74,306.17,Single-ply,SBD,M
Boys,55.79,6,Samuel Gracia,Weslaco,55.79,111.13,65.77,124.74,301.64,Single-ply,SBD,M
Boys,55.79,7,Mark Cavasos,Edinburg Vela,55.79,120.2,68.04,111.13,299.37,Single-ply,SBD,M
Boys,59.87,1,Robert Saenz,Sharyland Pioneer,59.42,183.7,120.2,199.58,503.49,Single-ply,SBD,M
Boys,59.87,2,Aaron Lozano,Edinburg Quest College Prep,59.87,172.37,88.45,192.78,453.59,Single-ply,SBD,M
Boys,59.87,3,Fernie Martinez,Weslaco,58.97,151.95,90.72,170.1,412.77,Single-ply,SBD,M
Boys,59.87,4,Jesus Rosillo,McAllen,59.87,158.76,81.65,149.69,390.09,Single-ply,SBD,M
Boys,59.87,5,Stanley Davis,McAllen Memorial,59.42,145.15,102.06,136.08,383.29,Single-ply,SBD,M
Boys,59.87,6,Matthew Randall,Edinburg Quest College Prep,59.87,129.27,90.72,147.42,367.41,Single-ply,SBD,M
Boys,59.87,7,Isaac Galvan,Sharyland Pioneer,58.06,131.54,81.65,124.74,337.93,Single-ply,SBD,M
Boys,59.87,8,Ruben Saenz III,McAllen Rowe,59.87,129.27,68.04,129.27,326.59,Single-ply,SBD,M
Boys,59.87,DQ,Eduardo Elizondo,Rio Grande City Grulla,59.87,165.56,,,,Single-ply,SBD,M
Boys,67.13,1,Coy Burrows,Sharyland Pioneer,67.13,217.72,136.08,215.46,569.26,Single-ply,SBD,M
Boys,67.13,2,Ricardo Pena #1,Rio Grande City,65.77,195.04,133.81,213.19,542.04,Single-ply,SBD,M
Boys,67.13,3,Jose Serna,Weslaco East,62.69,192.78,104.33,195.04,492.15,Single-ply,SBD,M
Boys,67.13,4,Daniel Lozano,Weslaco,66.22,176.9,129.27,179.17,485.34,Single-ply,SBD,M
Boys,67.13,5,Jaaziel Espinoza,McAllen,66.68,188.24,117.93,176.9,483.08,Single-ply,SBD,M
Boys,67.13,6,Chris Rios,Rio Grande City,63.5,181.44,117.93,167.83,467.2,Single-ply,SBD,M
Boys,67.13,7,Anthony de Leon,Edinburg Quest College Prep,66.68,172.37,108.86,183.7,464.93,Single-ply,SBD,M
Boys,67.13,8,Andrew Nevarez,Edinburg Idea College Prep,65.77,185.97,99.79,174.63,460.4,Single-ply,SBD,M
Boys,67.13,9,Dylan Bazarte,Mission Sharyland,65.32,174.63,95.25,181.44,451.32,Single-ply,SBD,M
Boys,67.13,10,Daniel García,Edinburg Quest College Prep,61.23,140.61,90.72,140.61,371.95,Single-ply,SBD,M
Boys,67.13,11,Brandon Rodriguez #1,Edinburg Idea College Prep,66.22,136.08,72.57,147.42,356.07,Single-ply,SBD,M
Boys,67.13,12,Antonio Vasquez,Edinburg Quest College Prep,65.32,108.86,68.04,158.76,335.66,Single-ply,SBD,M
Boys,67.13,13,Abraham Salinas,Rio Grande City Grulla,66.22,111.13,86.18,133.81,331.12,Single-ply,SBD,M
Boys,67.13,14,Jj Hinojosa,Mission Veterans Memorial,66.41,92.99,56.7,97.52,247.21,Single-ply,SBD,M
Boys,67.13,DQ,Sebastian Casares,Edinburg Quest College Prep,62.6,102.06,,,,Single-ply,SBD,M
Boys,67.13,DQ,Abraham Hernandez,La Joya Palmview,66.22,,,,,Single-ply,SBD,M
Boys,67.13,DQ,Moses Olivarez,McAllen Memorial,67.13,197.31,122.47,,,Single-ply,SBD,M
Boys,74.84,1,Francisco Marin,Weslaco,73.94,258.55,147.42,240.4,646.37,Single-ply,SBD,M
Boys,74.84,2,Juan Zurita,Rio Grande City,74.39,190.51,136.08,199.58,526.17,Single-ply,SBD,M
Boys,74.84,3,David Alaniz,La Joya Palmview,73.94,192.78,115.67,176.9,485.34,Single-ply,SBD,M
Boys,74.84,4,Andrew Solis,Edinburg Vela,74.84,174.63,120.2,185.97,480.81,Single-ply,SBD,M
Boys,74.84,5,Devin Alvarado,McAllen Memorial,73.48,183.7,117.93,176.9,478.54,Single-ply,SBD,M
Boys,74.84,6,Imanol Rocha,Edinburg Vela,70.76,174.63,115.67,163.29,453.59,Single-ply,SBD,M
Boys,74.84,7,Emiliano Becerril,Mission Sharyland,71.21,183.7,102.06,167.83,453.59,Single-ply,SBD,M
Boys,74.84,8,Rudy Tercero,Edinburg Quest College Prep,73.48,158.76,102.06,174.63,435.45,Single-ply,SBD,M
Boys,74.84,9,Adam Pena,La Joya,74.84,154.22,97.52,183.7,435.45,Single-ply,SBD,M
Boys,74.84,10,Andres Bonilla,Mission Sharyland,73.03,163.29,90.72,170.1,424.11,Single-ply,SBD,M
Boys,74.84,11,Christopher Palomo,McAllen,74.39,156.49,90.72,156.49,403.7,Single-ply,SBD,M
Boys,74.84,12,Michael Garcia #12,Edinburg Vela,69.85,142.88,102.06,142.88,387.82,Single-ply,SBD,M
Boys,74.84,13,Marcus Flores,McAllen,72.12,142.88,74.84,147.42,365.14,Single-ply,SBD,M
Boys,74.84,DQ,Idris Chargois,McAllen Memorial,71.21,165.56,106.59,,,Single-ply,SBD,M
Boys,74.84,DQ,Sean De La Garza,Mission,74.39,278.96,147.42,,,Single-ply,SBD,M
Boys,82.1,1,Imanol Ordonez,Weslaco East,81.65,226.8,142.88,265.35,635.03,Single-ply,SBD,M
Boys,82.1,2,Robert La Buff,Weslaco,82.1,235.87,147.42,242.67,625.96,Single-ply,SBD,M
Boys,82.1,3,Jazaih Escamilla,McAllen Memorial,76.2,244.94,151.95,226.8,623.69,Single-ply,SBD,M
Boys,82.1,4,Mauricio Gonzalez,Mission,82.1,219.99,138.35,210.92,569.26,Single-ply,SBD,M
Boys,82.1,5,Julian Hernandez,McAllen Memorial,82.1,199.58,142.88,197.31,539.77,Single-ply,SBD,M
Boys,82.1,6,Robert Farias,Mission Sharyland,81.19,206.38,117.93,190.51,514.83,Single-ply,SBD,M
Boys,82.1,7,Luis Garza,La Joya,82.1,199.58,120.2,183.7,503.49,Single-ply,SBD,M
Boys,82.1,8,Miguel Rendon,Mission,80.74,179.17,106.59,190.51,476.27,Single-ply,SBD,M
Boys,82.1,9,Oscar Mendoza,La Joya Palmview,81.65,174.63,113.4,174.63,462.66,Single-ply,SBD,M
Boys,82.1,10,Jose Ramos,Rio Grande City Grulla,82.1,170.1,124.74,154.22,449.06,Single-ply,SBD,M
Boys,82.1,11,Rolando Briseno,McAllen,80.74,161.03,122.47,154.22,437.72,Single-ply,SBD,M
Boys,82.1,12,Jonas Ortiz,McAllen Rowe,80.74,149.69,104.33,163.29,417.3,Single-ply,SBD,M
Boys,82.1,13,Marc Garcia,La Joya,82.1,165.56,92.99,154.22,412.77,Single-ply,SBD,M
Boys,82.1,14,David Saldana,McAllen Rowe,78.93,133.81,104.33,167.83,405.97,Single-ply,SBD,M
Boys,82.1,15,Aaron Pena,Edinburg Vela,82.1,163.29,83.91,142.88,390.09,Single-ply,SBD,M
Boys,82.1,16,Gabriel Acosta #1,Sharyland Pioneer,79.83,149.69,88.45,133.81,371.95,Single-ply,SBD,M
Boys,82.1,17,Juan Villarreal #3,Sharyland Pioneer,80.74,131.54,88.45,142.88,362.87,Single-ply,SBD,M
Boys,82.1,18,Danny Mata,Edinburg Quest College Prep,82.1,97.52,81.65,140.61,319.78,Single-ply,SBD,M
Boys,82.1,DQ,Eduardo Cortez,McAllen Memorial,80.29,,,,,Single-ply,SBD,M
Boys,82.1,DQ,Christian Avila,Weslaco East,81.65,,,,,Single-ply,SBD,M
Boys,89.81,1,Obed Hernandez,Sharyland Pioneer,89.81,276.69,156.49,265.35,698.53,Single-ply,SBD,M
Boys,89.81,2,Albert Monroy,Mission Veterans Memorial,88.99,251.74,120.2,231.33,603.28,Single-ply,SBD,M
Boys,89.81,3,Fred Cardenas,Weslaco East,85.09,204.12,142.88,229.06,576.06,Single-ply,SBD,M
Boys,89.81,4,Ryan Alvarez,Rio Grande City,86.18,215.46,122.47,215.46,553.38,Single-ply,SBD,M
Boys,89.81,5,Miguel de Hoyos,La Joya Palmview,87.54,222.26,142.88,183.7,548.85,Single-ply,SBD,M
Boys,89.81,6,Zeke Lozano,Weslaco,85.28,215.46,129.27,201.85,546.58,Single-ply,SBD,M
Boys,89.81,7,Matt Vela,Weslaco East,84.01,204.12,115.67,215.46,535.24,Single-ply,SBD,M
Boys,89.81,8,Aaron Garcia,Weslaco,88.9,204.12,113.4,197.31,514.83,Single-ply,SBD,M
Boys,89.81,9,Alek Garza,Mission Veterans Memorial,89.54,192.78,115.67,197.31,505.76,Single-ply,SBD,M
Boys,89.81,10,Michael Morales,McAllen Rowe,83.91,188.24,124.74,185.97,498.95,Single-ply,SBD,M
Boys,89.81,11,Jacob Trevino,Edinburg Vela,85.28,181.44,102.06,183.7,467.2,Single-ply,SBD,M
Boys,89.81,12,Matthew Guzman,Edinburg Vela,87.09,163.29,106.59,158.76,428.64,Single-ply,SBD,M
Boys,89.81,13,Gilbert Cerda,Edinburg Vela,89.81,165.56,108.86,147.42,421.84,Single-ply,SBD,M
Boys,89.81,14,Aaron Gonzalez,McAllen Rowe,88.45,147.42,92.99,167.83,408.23,Single-ply,SBD,M
Boys,89.81,DQ,Aj Flores,Mission,89.36,163.29,117.93,,,Single-ply,SBD,M
Boys,89.81,DQ,Antonio Rodriguez,McAllen,89.36,,,,,Single-ply,SBD,M
Boys,99.79,1,Ralph Montemayor,Edinburg Vela,96.16,254.01,154.22,235.87,644.1,Single-ply,SBD,M
Boys,99.79,2,Daniel Villarreal,La Joya,91.17,249.48,136.08,240.4,625.96,Single-ply,SBD,M
Boys,99.79,3,Dylan Earhart,McAllen Memorial,96.16,251.74,136.08,226.8,614.62,Single-ply,SBD,M
Boys,99.79,4,Eddie Hernandez,La Joya Juarez-Lincoln,97.52,235.87,142.88,231.33,610.08,Single-ply,SBD,M
Boys,99.79,5,Eddie Garza,Rio Grande City,92.99,197.31,138.35,215.46,551.11,Single-ply,SBD,M
Boys,99.79,6,Eric Guiterrez,Mission,98.43,208.65,138.35,183.7,530.7,Single-ply,SBD,M
Boys,99.79,7,Felix Vargas,Weslaco East,97.52,185.97,127.01,154.22,467.2,Single-ply,SBD,M
Boys,99.79,8,Jorge Barrera,McAllen Rowe,95.25,158.76,111.13,190.51,460.4,Single-ply,SBD,M
Boys,99.79,DQ,Danny Vasquez,La Joya Palmview,93.44,183.7,108.86,,,Single-ply,SBD,M
Boys,99.79,DQ,Sebastian Buitron,McAllen,99.34,,,,,Single-ply,SBD,M
Boys,99.79,DQ,Jose Quintero,McAllen Rowe,92.99,165.56,,,,Single-ply,SBD,M
Boys,99.79,DQ,Ivan Garcia #3,Rio Grande City Grulla,94.8,,,,,Single-ply,SBD,M
Boys,99.79,DQ,Gonzalo Montalvo,Rio Grande City Grulla,99.79,151.95,,,,Single-ply,SBD,M
Boys,99.79,DQ,Derek Solis,Rio Grande City Grulla,95.71,190.51,,,,Single-ply,SBD,M
Boys,109.77,1,Jacob Banda,Weslaco East,107.95,285.76,154.22,272.16,712.14,Single-ply,SBD,M
Boys,109.77,2,Jesus Proa,La Joya Juarez-Lincoln,109.32,272.16,161.03,235.87,669.05,Single-ply,SBD,M
Boys,109.77,3,Juan Martinez,La Joya Juarez-Lincoln,109.77,240.4,151.95,233.6,625.96,Single-ply,SBD,M
Boys,109.77,4,Miguel Salazar,Rio Grande City Grulla,109.32,226.8,127.01,217.72,571.53,Single-ply,SBD,M
Boys,109.77,5,Jaime Gomez,Rio Grande City,103.87,192.78,145.15,199.58,537.51,Single-ply,SBD,M
Boys,109.77,6,Abel Silva,Rio Grande City,104.33,206.38,113.4,185.97,505.76,Single-ply,SBD,M
Boys,109.77,7,Enrique Avila,Weslaco East,104.33,204.12,120.2,181.44,505.76,Single-ply,SBD,M
Boys,109.77,8,Donavan Rodriguez,Mission Veterans Memorial,103.42,183.7,102.06,170.1,455.86,Single-ply,SBD,M
Boys,109.77,9,Alex Guerra,McAllen Memorial,108.41,174.63,97.52,161.03,433.18,Single-ply,SBD,M
Boys,109.77,10,Sandalio Garcia,Sharyland Pioneer,102.06,167.83,108.86,151.95,428.64,Single-ply,SBD,M
Boys,109.77,11,Bryan Rosales,Mission,101.15,147.42,108.86,156.49,412.77,Single-ply,SBD,M
Boys,109.77,DQ,Jose Molina #3,McAllen,106.59,,,,,Single-ply,SBD,M
Boys,109.77,DQ,Israel Monsivaiz,La Joya Juarez-Lincoln,108.41,213.19,,,,Single-ply,SBD,M
Boys,124.74,1,Juan Rivas,La Joya Palmview,117.03,276.69,174.63,244.94,696.26,Single-ply,SBD,M
Boys,124.74,2,Aliver Chapa,La Joya Juarez-Lincoln,117.48,265.35,188.24,238.14,691.73,Single-ply,SBD,M
Boys,124.74,3,Luis Salinas,Rio Grande City,121.56,249.48,170.1,256.28,675.85,Single-ply,SBD,M
Boys,124.74,4,Joshua Williams,Mission Sharyland,124.74,249.48,156.49,226.8,632.76,Single-ply,SBD,M
Boys,124.74,5,Steven Alvarez,Mission,119.75,224.53,142.88,226.8,594.21,Single-ply,SBD,M
Boys,124.74,6,Juan Rodriguez,Rio Grande City,119.29,238.14,117.93,229.06,585.13,Single-ply,SBD,M
Boys,124.74,7,David Garza,Edinburg Vela,117.93,206.38,129.27,215.46,551.11,Single-ply,SBD,M
Boys,124.74,8,Luis Garcia #6,Rio Grande City Grulla,113.4,224.53,127.01,183.7,535.24,Single-ply,SBD,M
Boys,124.74,9,Raul Martinez,Weslaco,118.39,215.46,129.27,183.7,528.44,Single-ply,SBD,M
Boys,124.74,10,Victor Esquivel,Edinburg Vela,116.57,195.04,113.4,190.51,498.95,Single-ply,SBD,M
Boys,124.74,11,Osiel Alonzo,La Joya Juarez-Lincoln,113.4,195.04,124.74,172.37,492.15,Single-ply,SBD,M
Boys,124.74,12,Jesse Garza,McAllen Rowe,113.85,170.1,122.47,185.97,478.54,Single-ply,SBD,M
Boys,124.74,13,Damien Gomez,Mission Veterans Memorial,115.8,190.51,92.99,188.24,471.74,Single-ply,SBD,M
Boys,124.74,14,Ezequiel Chavez,La Joya,117.93,183.7,102.06,167.83,453.59,Single-ply,SBD,M
Boys,124.74,DQ,DeMarco Wolf,Edinburg Quest College Prep,117.93,,,,,Single-ply,SBD,M
Boys,124.74,DQ,Albert Torres,McAllen Rowe,117.93,167.83,,,,Single-ply,SBD,M
Boys,124.74+,1,Daniel Roque,Weslaco East,152.86,281.23,147.42,249.48,678.12,Single-ply,SBD,M
Boys,124.74+,2,Gerardo Lopez,McAllen,129.73,272.16,174.63,192.78,639.57,Single-ply,SBD,M
Boys,124.74+,3,Sam Perez,Weslaco,129.27,260.82,147.42,226.8,635.03,Single-ply,SBD,M
Boys,124.74+,4,Victor Anzaldua,Mission Veterans Memorial,137.62,276.69,120.2,229.06,625.96,Single-ply,SBD,M
Boys,124.74+,5,Oscar Garcia,Mission Sharyland,140.61,208.65,113.4,158.76,480.81,Single-ply,SBD,M
Boys,124.74+,6,Jacob Mata,McAllen Rowe,147.42,163.29,136.08,161.03,460.4,Single-ply,SBD,M
Boys,124.74+,DQ,Julian Vela,Mission,128.82,,,,,Single-ply,SBD,M
Boys,124.74+,DQ,Cavazos Dereck,Mission,144.7,,,,,Single-ply,SBD,M
Boys,124.74+,DQ,Omar Mendoza,La Joya Juarez-Lincoln,140.16,183.7,122.47,,,Single-ply,SBD,M
Boys,124.74+,DQ,Jose Chavez,La Joya,166.92,,,,,Single-ply,SBD,M
Boys,,NS,Alex Rodriguez #2,La Joya,,,,,,Single-ply,SBD,M
Boys,,NS,Orlando Guzman,La Joya,,,,,,Single-ply,SBD,M
Boys,,NS,Sadge Diaz,McAllen,,,,,,Single-ply,SBD,M
Boys,,NS,Jesus Borrego,McAllen,,,,,,Single-ply,SBD,M
Boys,,NS,Mario Perez,Weslaco,,,,,,Single-ply,SBD,M
Boys,,NS,Adrian Fuentes,Weslaco,,,,,,Single-ply,SBD,M
