Division,WeightClassKg,Place,Name,Team,BodyweightKg,Best3SquatKg,Best3BenchKg,Best3DeadliftKg,TotalKg,Equipment,Event,Sex,BirthDate
Boys,51.71,1,Adam Perez,De Leon,49.9,97.52,61.23,120.2,278.96,Single-ply,SBD,M,
Boys,51.71,2,Aiden Baker,Hamilton,46.9,106.59,65.77,102.06,274.42,Single-ply,SBD,M,
Boys,51.71,3,Raiden Spruill,Hico,51.07,90.72,43.09,108.86,242.67,Single-ply,SBD,M,
Boys,55.79,1,Lisandro Ortiz,Dublin,55.79,140.61,77.11,154.22,371.95,Single-ply,SBD,M,
Boys,55.79,2,Lander Callison,De Leon,54.98,102.06,61.23,113.4,276.69,Single-ply,SBD,M,
Boys,59.87,1,Mario Pena,De Leon,58.69,170.1,95.25,154.22,419.57,Single-ply,SBD,M,
Boys,59.87,2,Wilson Hammond,Lampasas,57.88,136.08,83.91,140.61,360.61,Single-ply,SBD,M,
Boys,59.87,3,Cameron Patton,Dublin,59.69,133.81,92.99,133.81,360.61,Single-ply,SBD,M,
Boys,59.87,4,Alvaro Sanchez,De Leon,56.97,136.08,72.57,136.08,344.73,Single-ply,SBD,M,
Boys,59.87,5,Lewis Northridge,Comanche,59.69,124.74,83.91,136.08,344.73,Single-ply,SBD,M,
Boys,59.87,6,Adam Spharler,Dublin,58.51,117.93,77.11,147.42,342.46,Single-ply,SBD,M,
Boys,59.87,7,Axel Rangel,Comanche,57.88,129.27,70.31,140.61,340.19,Single-ply,SBD,M,
Boys,59.87,8,Parker Weinhimer,Lampasas,56.61,115.67,79.38,113.4,308.44,Single-ply,SBD,M,
Boys,67.13,1,Ben Bruce,Hamilton,67.13,156.49,90.72,183.7,430.91,Single-ply,SBD,M,
Boys,67.13,2,Alonzo Moreno,Dublin,65.68,161.03,74.84,167.83,403.7,Single-ply,SBD,M,
Boys,67.13,3,James Cecil,Hico,65.95,154.22,95.25,154.22,403.7,Single-ply,SBD,M,
Boys,67.13,4,Dakota Higgins,Rising Star,66.77,140.61,79.38,158.76,378.75,Single-ply,SBD,M,
Boys,67.13,5,Jason Rainbolt,Hamilton,61.05,120.2,70.31,147.42,337.93,Single-ply,SBD,M,
Boys,67.13,6,Buck Powell,Hico,60.15,113.4,63.5,120.2,297.1,Single-ply,SBD,M,
Boys,67.13,DQ,Triston Flinn,Hico,65.68,,88.45,154.22,,Single-ply,SBD,M,
Boys,67.13,DQ,Cosme Gonzalez,Comanche,66.86,,97.52,165.56,,Single-ply,SBD,M,
Boys,74.84,1,Dominique Wooten,Lampasas,71.03,204.12,151.95,213.19,569.26,Single-ply,SBD,M,
Boys,74.84,2,Luis Ordoñez,Dublin,74.66,197.31,138.35,195.04,530.7,Single-ply,SBD,M,
Boys,74.84,3,Alan Garza,Comanche,74.75,190.51,108.86,188.24,487.61,Single-ply,SBD,M,
Boys,74.84,4,Jj Bowling,Lampasas,74.3,158.76,129.27,183.7,471.74,Single-ply,SBD,M,
Boys,74.84,5,Kaeson Raub,Lampasas,70.76,174.63,113.4,174.63,462.66,Single-ply,SBD,M,
Boys,74.84,6,Easton Gonzalez,Comanche,73.21,165.56,111.13,176.9,453.59,Single-ply,SBD,M,
Boys,74.84,7,Elijah Gonzalez,Dublin,69.58,181.44,95.25,172.37,449.06,Single-ply,SBD,M,
Boys,74.84,8,Lane Spencer,De Leon,73.84,174.63,95.25,167.83,437.72,Single-ply,SBD,M,
Boys,74.84,9,Price Mullin,Hico,68.31,151.95,86.18,172.37,410.5,Single-ply,SBD,M,
Boys,74.84,10,Jovani Cervantes,Dublin,73.94,161.03,74.84,172.37,408.23,Single-ply,SBD,M,
Boys,74.84,11,Izaac Wood,Hamilton,69.58,154.22,97.52,142.88,394.63,Single-ply,SBD,M,
Boys,74.84,12,Brayden Cook,Rising Star,74.39,124.74,95.25,131.54,351.53,Single-ply,SBD,M,
Boys,74.84,13,Adrian Canales,Rising Star,68.95,124.74,65.77,124.74,315.25,Single-ply,SBD,M,
Boys,74.84,DQ,Michael Guinn,Hico,74.66,,77.11,158.76,,Single-ply,SBD,M,
Boys,82.1,1,Westen Reid,Lampasas,81.83,290.3,158.76,272.16,721.21,Single-ply,SBD,M,
Boys,82.1,2,Dailin Fagan,Lampasas,81.19,195.04,102.06,192.78,489.88,Single-ply,SBD,M,
Boys,82.1,3,Miguel Gonzales,Hamilton,80.74,170.1,92.99,167.83,430.91,Single-ply,SBD,M,
Boys,82.1,4,Connor Bostick,De Leon,81.01,158.76,79.38,163.29,401.43,Single-ply,SBD,M,
Boys,82.1,5,Louis Garcia,De Leon,76.2,131.54,97.52,145.15,374.21,Single-ply,SBD,M,
Boys,82.1,6,Max Getner,Hico,78.65,102.06,65.77,127.01,294.84,Single-ply,SBD,M,
Boys,82.1,DQ,Chaz Morganstean,De Leon,80.74,131.54,,151.95,,Single-ply,SBD,M,
Boys,82.1,DQ,Cade Bauman,Comanche,78.02,210.92,,192.78,,Single-ply,SBD,M,
Boys,89.81,1,Bernie Ortega,Dublin,88.09,213.19,142.88,229.06,585.13,Single-ply,SBD,M,
Boys,89.81,2,Aden Rascoe,Lampasas,88.18,208.65,140.61,204.12,553.38,Single-ply,SBD,M,
Boys,89.81,3,Darby Craig,Hamilton,87.91,158.76,90.72,176.9,426.38,Single-ply,SBD,M,
Boys,89.81,4,Lincoln Moore,Hico,84.01,158.76,106.59,147.42,412.77,Single-ply,SBD,M,
Boys,89.81,5,Baylen Gutierrez,Comanche,84.1,131.54,88.45,138.35,358.34,Single-ply,SBD,M,
Boys,89.81,6,Jaydyn Gonzales,Dublin,87.54,124.74,86.18,136.08,347,Single-ply,SBD,M,
Boys,99.79,1,Raider Moura,Lampasas,93.71,161.03,106.59,165.56,433.18,Single-ply,SBD,M,
Boys,99.79,2,Logan Ratliff,Rising Star,98.7,131.54,54.43,133.81,319.78,Single-ply,SBD,M,
Boys,109.77,1,Michael Stanley,Dublin,103.06,238.14,174.63,215.46,628.23,Single-ply,SBD,M,
Boys,109.77,2,Dom Rios,Comanche,101.88,229.06,145.15,229.06,603.28,Single-ply,SBD,M,
Boys,109.77,3,Ron Ramirez,Hamilton,106.05,215.46,124.74,192.78,532.97,Single-ply,SBD,M,
Boys,109.77,4,Carson Marquess,Hamilton,106.5,206.38,99.79,215.46,521.63,Single-ply,SBD,M,
Boys,109.77,5,Diego Munoz,Comanche,106.87,192.78,142.88,174.63,510.29,Single-ply,SBD,M,
Boys,109.77,6,Aj Luna,Lampasas,102.6,217.72,115.67,170.1,503.49,Single-ply,SBD,M,
Boys,109.77,7,Wes Griffin,Hamilton,106.32,170.1,120.2,188.24,478.54,Single-ply,SBD,M,
Boys,109.77,8,Adrian Ruiz,Hico,107.86,176.9,115.67,158.76,451.32,Single-ply,SBD,M,
Boys,109.77,9,Owen Tyson,Hamilton,105.05,174.63,102.06,147.42,424.11,Single-ply,SBD,M,
Boys,109.77,10,Logan Sherrard,De Leon,107.68,145.15,88.45,158.76,392.36,Single-ply,SBD,M,
Boys,109.77,11,Aidrian Tepetate,De Leon,103.69,145.15,81.65,145.15,371.95,Single-ply,SBD,M,
Boys,124.74,1,Jose Najera,Hamilton,112.4,254.01,158.76,217.72,630.49,Single-ply,SBD,M,
Boys,124.74,2,Ruben Silva,De Leon,118.3,222.26,131.54,190.51,544.31,Single-ply,SBD,M,
Boys,124.74,3,Salvador Anaya,Comanche,110.22,192.78,97.52,201.85,492.15,Single-ply,SBD,M,
Boys,124.74,4,Nic Adams,Hamilton,114.21,190.51,88.45,181.44,460.4,Single-ply,SBD,M,
Boys,124.74,DQ,Wyatt Evans,Hico,111.04,102.06,,142.88,,Single-ply,SBD,M,
Boys,139.71,1,Joe Leal,De Leon,124.83,222.26,131.54,226.8,580.6,Single-ply,SBD,M,
Boys,139.71,2,Shea Robinson,Lampasas,132.99,215.46,149.69,174.63,539.77,Single-ply,SBD,M,
Boys,139.71,3,Ben Wilson,Hico,125.83,226.8,113.4,183.7,523.9,Single-ply,SBD,M,
Boys,139.71,4,Eddy Hernandez,Dublin,136.17,174.63,117.93,181.44,474,Single-ply,SBD,M,
Boys,139.71+,1,Landon Deters,Comanche,173.82,188.24,92.99,188.24,469.47,Single-ply,SBD,M,
