Division,WeightClassKg,Place,Name,Team,BodyweightKg,Best3SquatKg,Best3BenchKg,Best3DeadliftKg,TotalKg,Equipment,Event,Sex,BirthDate
Boys,51.71,1,Jonathan Becerril,Perryton,50.44,165.56,95.25,179.17,439.98,Single-ply,SBD,M,
Boys,51.71,2,Nathan Rendon,Levelland,51.66,120.2,81.65,145.15,347,Single-ply,SBD,M,
Boys,51.71,3,Talon Cavazos,Big Spring,50.94,122.47,72.57,145.15,340.19,Single-ply,SBD,M,
Boys,51.71,4,Edgar Ramos,Perryton,51.03,113.4,65.77,131.54,310.71,Single-ply,SBD,M,
Boys,51.71,5,Lucas McNeely,Monahans,50.76,117.93,65.77,115.67,299.37,Single-ply,SBD,M,
Boys,51.71,6,Jose Zamora,Dumas,51.35,117.93,70.31,111.13,299.37,Single-ply,SBD,M,
Boys,51.71,7,David Haygood,Andrews,50.67,106.59,72.57,117.93,297.1,Single-ply,SBD,M,
Boys,51.71,8,Israel Espinoza,Vernon,51.35,104.33,61.23,124.74,290.3,Single-ply,SBD,M,
Boys,51.71,9,Jarred Brantley,Pecos,51.62,106.59,68.04,115.67,290.3,Single-ply,SBD,M,
Boys,51.71,DQ,Edward Rocha,Perryton,51.26,,,,,Single-ply,SBD,M,
Boys,51.71,DQ,Christian Nas,Perryton,51.12,,,,,Single-ply,SBD,M,
Boys,51.71,DQ,Quaylon Rios,Fort Stockton,51.3,124.74,70.31,,,Single-ply,SBD,M,
Boys,55.79,1,Adrian Avalos,Snyder,54.2,170.1,95.25,172.37,437.72,Single-ply,SBD,M,
Boys,55.79,2,Alejandro Flores,Snyder,54.16,176.9,88.45,170.1,435.45,Single-ply,SBD,M,
Boys,55.79,3,Kenny Richardson,Big Spring,54.61,161.03,102.06,170.1,433.18,Single-ply,SBD,M,
Boys,55.79,4,Rj Lopez,Levelland,55.16,149.69,90.72,154.22,394.63,Single-ply,SBD,M,
Boys,55.79,5,Elijah Mier,Big Spring,55.47,131.54,81.65,156.49,369.68,Single-ply,SBD,M,
Boys,55.79,6,Jesus Vega,Perryton,54.75,124.74,77.11,158.76,360.61,Single-ply,SBD,M,
Boys,55.79,7,Trey Jimenez,Sweetwater,53.98,127.01,72.57,136.08,335.66,Single-ply,SBD,M,
Boys,55.79,8,Luis Ramos,Fort Stockton,55.57,127.01,74.84,122.47,324.32,Single-ply,SBD,M,
Boys,55.79,9,Andrew Rangel,Fort Stockton,55.07,106.59,61.23,113.4,281.23,Single-ply,SBD,M,
Boys,55.79,DQ,Javi Garcia,Pecos,55.57,,,,,Single-ply,SBD,M,
Boys,55.79,NS,Angel Sosa,Midland Greenwood,,,,,,Single-ply,SBD,M,
Boys,55.79,DQ,Zaden Carrillo,Levelland,55.34,104.33,68.04,,,Single-ply,SBD,M,
Boys,55.79,DQ,Tyler Munoz,Sweetwater,54.34,149.69,,,,Single-ply,SBD,M,
Boys,59.87,1,Ivan Zamora,Andrews,58.29,210.92,113.4,192.78,517.1,Single-ply,SBD,M,
Boys,59.87,2,Isaac Castro,Perryton,59.01,192.78,120.2,188.24,501.22,Single-ply,SBD,M,
Boys,59.87,3,Javier Martinez,Perryton,59.15,176.9,74.84,190.51,442.25,Single-ply,SBD,M,
Boys,59.87,4,Cristian Garcia,Fort Stockton,59.87,165.56,88.45,183.7,437.72,Single-ply,SBD,M,
Boys,59.87,5,Jonathan Jaso,Dumas,58.29,161.03,95.25,170.1,426.38,Single-ply,SBD,M,
Boys,59.87,6,Iram Castillo,Perryton,59.33,165.56,86.18,165.56,417.3,Single-ply,SBD,M,
Boys,59.87,7,Chandler Tran,Snyder,59.56,158.76,97.52,156.49,412.77,Single-ply,SBD,M,
Boys,59.87,8,Arturo Del Valle,Big Spring,56.15,145.15,102.06,151.95,399.16,Single-ply,SBD,M,
Boys,59.87,9,Bradyn Eisenbarth,Midland Greenwood,59.87,151.95,97.52,149.69,399.16,Single-ply,SBD,M,
Boys,59.87,10,Daniel Renteria,Fort Stockton,59.24,142.88,83.91,165.56,392.36,Single-ply,SBD,M,
Boys,59.87,DQ,Francisco Balderas,Vernon,58.65,172.37,,,,Single-ply,SBD,M,
Boys,59.87,NS,Jose Chavira,Dumas,,,,,,Single-ply,SBD,M,
Boys,67.13,1,Eric Martinez,Sweetwater,65.68,224.53,129.27,215.46,569.26,Single-ply,SBD,M,
Boys,67.13,2,Israel Loma,Perryton,65.54,213.19,120.2,219.99,553.38,Single-ply,SBD,M,
Boys,67.13,3,David Olivas,Andrews,67.13,201.85,104.33,208.65,514.83,Single-ply,SBD,M,
Boys,67.13,4,John Rivera,Snyder,66.27,192.78,102.06,215.46,510.29,Single-ply,SBD,M,
Boys,67.13,5,Daniel Montano,Andrews,66.04,208.65,90.72,206.38,505.76,Single-ply,SBD,M,
Boys,67.13,6,Angel Camero,Levelland,67.13,190.51,99.79,213.19,503.49,Single-ply,SBD,M,
Boys,67.13,7,Nathan Gonzales,Dumas,66.18,181.44,108.86,195.04,485.34,Single-ply,SBD,M,
Boys,67.13,8,Rodolfo Delgado,Perryton,66.22,165.56,120.2,176.9,462.66,Single-ply,SBD,M,
Boys,67.13,9,Jeremiah Orosco,Snyder,63.96,183.7,88.45,172.37,444.52,Single-ply,SBD,M,
Boys,67.13,DQ,Htoo Wah,Vernon,65.14,,,,,Single-ply,SBD,M,
Boys,67.13,DQ,Carlos Parra,Dumas,67,183.7,,,,Single-ply,SBD,M,
Boys,67.13,DQ,Jess Philley,Dumas,66.32,188.24,,,,Single-ply,SBD,M,
Boys,67.13,NS,Luis Cabrera,Snyder,,,,,,Single-ply,SBD,M,
Boys,74.84,1,Christian Laja,Perryton,73.8,249.48,154.22,265.35,669.05,Single-ply,SBD,M,
Boys,74.84,2,Indiana Taylor,Andrews,73.07,226.8,147.42,238.14,612.35,Single-ply,SBD,M,
Boys,74.84,3,David Madrid,Pecos,73.8,199.58,133.81,217.72,551.11,Single-ply,SBD,M,
Boys,74.84,4,Gio Tarango,Midland Greenwood,74.84,222.26,124.74,183.7,530.7,Single-ply,SBD,M,
Boys,74.84,5,Luis Rivera,Perryton,72.98,183.7,99.79,215.46,498.95,Single-ply,SBD,M,
Boys,74.84,6,John Breeden,Midland Greenwood,73.94,195.04,102.06,199.58,496.68,Single-ply,SBD,M,
Boys,74.84,7,Leroy Johnson,Big Spring,71.17,195.04,108.86,185.97,489.88,Single-ply,SBD,M,
Boys,74.84,8,Israel Gabriel,Perryton,73.26,195.04,102.06,192.78,489.88,Single-ply,SBD,M,
Boys,74.84,9,Ismael Trejo,Vernon,71.53,176.9,113.4,192.78,483.08,Single-ply,SBD,M,
Boys,74.84,DQ,Thomas Mireles,Midland Greenwood,74.84,,,,,Single-ply,SBD,M,
Boys,74.84,DQ,James Bednorz,Dumas,74.16,,,,,Single-ply,SBD,M,
Boys,74.84,NS,Jose Armendariz,Andrews,,,,,,Single-ply,SBD,M,
Boys,82.1,1,Sabien Perry,Dumas,78.61,272.16,154.22,233.6,659.98,Single-ply,SBD,M,
Boys,82.1,2,George Wagner,Andrews,80.38,231.33,145.15,256.28,632.76,Single-ply,SBD,M,
Boys,82.1,3,Ernan Carrasco,Andrews,80.92,238.14,147.42,226.8,612.35,Single-ply,SBD,M,
Boys,82.1,4,Junior Torres,Perryton,80.1,242.67,133.81,226.8,603.28,Single-ply,SBD,M,
Boys,82.1,5,Stetson Garcia,Perryton,82.01,192.78,154.22,222.26,569.26,Single-ply,SBD,M,
Boys,82.1,6,Dalton L'Esperance,Perryton,82.1,215.46,120.2,215.46,551.11,Single-ply,SBD,M,
Boys,82.1,7,Connor McCrary,Andrews,80.83,215.46,108.86,208.65,532.97,Single-ply,SBD,M,
Boys,82.1,DQ,Caleb New,Big Spring,77.16,,,,,Single-ply,SBD,M,
Boys,82.1,DQ,Karl Karabanoff,Big Spring,79.38,,,,,Single-ply,SBD,M,
Boys,82.1,DQ,Yahir Mendoza,Dumas,78.61,258.55,,,,Single-ply,SBD,M,
Boys,82.1,DQ,Wyatt Olive,Midland Greenwood,80.2,,,,,Single-ply,SBD,M,
Boys,82.1,DQ,Ethan Brockman,Sweetwater,81.96,222.26,,,,Single-ply,SBD,M,
Boys,89.81,1,Logan Gray,Borger,88.54,281.23,142.88,249.48,673.58,Single-ply,SBD,M,
Boys,89.81,2,Zach Anthony,Lubbock Trinity Christian Schools,88.5,256.28,151.95,231.33,639.57,Single-ply,SBD,M,
Boys,89.81,3,Fernando Zapata,Midland Greenwood,88.99,256.28,142.88,235.87,635.03,Single-ply,SBD,M,
Boys,89.81,4,Luis Cervantes,Andrews,88.5,272.16,129.27,217.72,619.15,Single-ply,SBD,M,
Boys,89.81,5,Justin Sanchez,Fort Stockton,83.1,233.6,147.42,222.26,603.28,Single-ply,SBD,M,
Boys,89.81,6,Xander Richardson,Snyder,87.41,222.26,108.86,219.99,551.11,Single-ply,SBD,M,
Boys,89.81,7,Izaiah Vasquez,Perryton,86.5,219.99,129.27,192.78,542.04,Single-ply,SBD,M,
Boys,89.81,8,Cedrick Brown,Sweetwater,84.69,199.58,129.27,204.12,532.97,Single-ply,SBD,M,
Boys,89.81,9,Orlando Baeza,Midland Greenwood,89.63,226.8,131.54,,358.34,Single-ply,SB,M,
Boys,89.81,DQ,Dalton Leven,Dumas,87.41,,,,,Single-ply,SBD,M,
Boys,89.81,DQ,Seth Olsen,Big Spring,84.28,,,,,Single-ply,SBD,M,
Boys,89.81,NS,Brandon Castillo,Andrews,,,,,,Single-ply,SBD,M,
Boys,99.79,1,Reyes Silva,Snyder,97.25,353.8,170.1,265.35,789.25,Single-ply,SBD,M,
Boys,99.79,2,Alonso Tarango,Perryton,96.25,281.23,176.9,226.8,684.92,Single-ply,SBD,M,
Boys,99.79,3,Jaxon Lawdermilk,Andrews,95.39,265.35,133.81,247.21,646.37,Single-ply,SBD,M,
Boys,99.79,4,Angel Quiroz,Dumas,91.99,240.4,147.42,204.12,591.94,Single-ply,SBD,M,
Boys,99.79,5,Kyle Warren,Big Spring,97.84,231.33,120.2,226.8,578.33,Single-ply,SBD,M,
Boys,99.79,6,Isaih Montoya,Andrews,94.39,226.8,127.01,199.58,553.38,Single-ply,SBD,M,
Boys,99.79,7,Cesar Olvera,Snyder,98.97,192.78,147.42,201.85,542.04,Single-ply,SBD,M,
Boys,99.79,DQ,Jaden Rodriguez,Perryton,90.9,260.82,147.42,,,Single-ply,SBD,M,
Boys,99.79,DQ,Elijah Burton,Big Spring,95.84,,,,,Single-ply,SBD,M,
Boys,99.79,DQ,Arnoldo Hernandez,Dumas,95.3,219.99,,,,Single-ply,SBD,M,
Boys,99.79,DQ,Elijah Escajeda,Fort Stockton,99.29,242.67,145.15,,,Single-ply,SBD,M,
Boys,99.79,DQ,Bryan Chacon,Perryton,97.52,240.4,122.47,,,Single-ply,SBD,M,
Boys,109.77,1,Alexander Wootton,Seminole,105.1,303.91,172.37,278.96,755.23,Single-ply,SBD,M,
Boys,109.77,2,Adrian Salcido,Andrews,105.96,281.23,165.56,233.6,680.39,Single-ply,SBD,M,
Boys,109.77,3,Jaylon James,Snyder,108.54,278.96,158.76,219.99,657.71,Single-ply,SBD,M,
Boys,109.77,4,Gage Strain,Pecos,107.5,267.62,136.08,219.99,623.69,Single-ply,SBD,M,
Boys,109.77,5,Jj Mandujano,Perryton,104.19,235.87,127.01,251.74,614.62,Single-ply,SBD,M,
Boys,109.77,6,Alex Alcantar,San Angelo Lake View,107.05,240.4,138.35,229.06,607.81,Single-ply,SBD,M,
Boys,109.77,7,Cash Caswell,Andrews,105.6,242.67,142.88,219.99,605.55,Single-ply,SBD,M,
Boys,109.77,8,David Zamora,Andrews,106.78,233.6,131.54,238.14,603.28,Single-ply,SBD,M,
Boys,109.77,9,Jacob Payne,Monahans,105.55,238.14,131.54,226.8,596.47,Single-ply,SBD,M,
Boys,109.77,10,Isaac Cordova,San Angelo Lake View,99.93,206.38,113.4,199.58,519.36,Single-ply,SBD,M,
Boys,109.77,11,Gavin Garcia,Andrews,102.83,215.46,133.81,165.56,514.83,Single-ply,SBD,M,
Boys,109.77,DQ,Ely Barrera,Sweetwater,107.09,,,,,Single-ply,SBD,M,
Boys,124.74,1,Hector Pando,Dumas,119.84,294.84,190.51,263.08,748.43,Single-ply,SBD,M,
Boys,124.74,2,Juan Ortiz,San Angelo Lake View,123.6,292.57,181.44,265.35,739.36,Single-ply,SBD,M,
Boys,124.74,3,Josiah Flores,Andrews,112.63,288.03,174.63,240.4,703.07,Single-ply,SBD,M,
Boys,124.74,4,Noel Mekogue,Sweetwater,120.97,256.28,142.88,258.55,657.71,Single-ply,SBD,M,
Boys,124.74,5,Drew Coker,Monahans,115.44,260.82,145.15,224.53,630.49,Single-ply,SBD,M,
Boys,124.74,6,Vance Martinez,Snyder,116.94,249.48,129.27,219.99,598.74,Single-ply,SBD,M,
Boys,124.74,7,Moises Rodriguez,Monahans,114.08,217.72,147.42,226.8,591.94,Single-ply,SBD,M,
Boys,124.74,8,Willie Rodriguez,San Angelo Lake View,122.92,226.8,163.29,190.51,580.6,Single-ply,SBD,M,
Boys,124.74,9,Ashton Dickinson,Vernon,118.8,226.8,133.81,217.72,578.33,Single-ply,SBD,M,
Boys,124.74,10,Jiovanni Hernandez,Perryton,114.67,235.87,120.2,210.92,566.99,Single-ply,SBD,M,
Boys,124.74,11,Brady Casbeer,Midland Greenwood,118.89,233.6,151.95,170.1,555.65,Single-ply,SBD,M,
Boys,124.74,NS,Ivan Montes,Monahans,,,,,,Single-ply,SBD,M,
Boys,139.71,1,Daniel Alvidrez,Perryton,125.96,310.71,158.76,278.96,748.43,Single-ply,SBD,M,
Boys,139.71,2,Hunter Mastin,Lubbock Trinity Christian Schools,132.18,294.84,197.31,233.6,725.75,Single-ply,SBD,M,
Boys,139.71,3,Jacob Yanez,Big Spring,134.31,303.91,170.1,226.8,700.8,Single-ply,SBD,M,
Boys,139.71,4,Aden Hernandez,Snyder,127.19,272.16,165.56,217.72,655.44,Single-ply,SBD,M,
Boys,139.71,5,Juan Alvarez,Perryton,130.18,276.69,127.01,215.46,619.15,Single-ply,SBD,M,
Boys,139.71,6,Jayce Harris,Pecos,126.64,213.19,156.49,199.58,569.26,Single-ply,SBD,M,
Boys,139.71,7,John Rodriguez,Levelland,134.81,235.87,151.95,167.83,555.65,Single-ply,SBD,M,
Boys,139.71,8,John Cepeda,San Angelo Lake View,127.23,215.46,142.88,176.9,535.24,Single-ply,SBD,M,
Boys,139.71,DQ,Luis Mendoza,Fort Stockton,132.86,,,,,Single-ply,SBD,M,
Boys,139.71+,1,Lucas Martinez,Dumas,140.43,292.57,199.58,249.48,741.62,Single-ply,SBD,M,
Boys,139.71+,2,Hunter Cobb,Pecos,156.67,278.96,183.7,219.99,682.66,Single-ply,SBD,M,
Boys,139.71+,3,Caleb Branham,Borger,143.83,244.94,136.08,219.99,601.01,Single-ply,SBD,M,
Boys,139.71+,4,Abel Lopez,Sweetwater,153.77,215.46,129.27,208.65,553.38,Single-ply,SBD,M,
Boys,139.71+,5,Gilberto Martinez,Andrews,141.16,204.12,120.2,181.44,505.76,Single-ply,SBD,M,
Boys,139.71+,6,Julius Garcia,Fort Stockton,140.21,163.29,104.33,158.76,426.38,Single-ply,SBD,M,
Boys,139.71+,DQ,Chico Delgado,Andrews,143.83,281.23,,,,Single-ply,SBD,M,
