Place,WeightClassKg,Name,State,Division,Age,BodyweightKg,Best3BenchKg,Best3DeadliftKg,TotalKg,Event,Equipment,Sex
1,82.5,Vashon Perryman,KS,LT,24,75.8,142.5,275,417.5,BD,Raw,M
2,82.5,Charles Harris #2,CA,LT,34,81.19,160,243.5,403.5,BD,Raw,M
3,75,Nate Canha,MO,LT,19,72.53,115,237.5,352.5,BD,Raw,M
4,82.5,Mark Reynolds,TX,LT,21,79.92,137.5,248.5,386,BD,Raw,M
5,75,Casey Brown,CO,LT,47,69.13,110,215,325,BD,Raw,M
6,67.5,Terry Hedrick,TX,LT,53,66.59,115,200,315,BD,Raw,M
7,82.5,Chris Beck,KS,LT,41,80.78,160,190,350,BD,Raw,M
8,75,Bill Anderson,MO,LT,47,71.3,110,170,280,BD,Raw,M
DQ,82.5,George Baker,OK,LT,53,75.21,167.5,,,BD,Raw,M
DQ,82.5,Ken Kaiser,CO,LT,50,75.52,,,,BD,Raw,M
1,140,Desmond Phillips,OH,HY,44,137.26,217.5,365,582.5,BD,Raw,M
2,110,Tyson Meyers,KS,HY,31,108,215,307.5,522.5,BD,Raw,M
3,125,Letroy Higgins,KY,HY,29,122.29,215,315,530,BD,Raw,M
4,110,Jason Smith,AR,HY,31,106.23,190,312.5,502.5,BD,Raw,M
5,90,Valentino Harris,WI,HY,24,89.63,187.5,245,432.5,BD,Raw,M
6,110,Neil Eddins,TX,HY,48,102.1,172.5,286,458.5,BD,Raw,M
7,100,Caleb Frakes,MO,HY,27,99.02,167.5,227.5,395,BD,Raw,M
8,125,Eugene Martin,OH,HY,59,121.56,162.5,260,422.5,BD,Raw,M
9,110,Jeffrey Blaine,IA,HY,34,109.86,142.5,250,392.5,BD,Raw,M
10,140+,Daniel Gonzales #5,OK,HY,28,164.02,182.5,227.5,410,BD,Raw,M
11,100,Job Hou-Seye,WI,HY,43,98.38,110,158.5,268.5,BD,Raw,M
DQ,110,JT Hall,KY,HY,40,100.24,212.5,,,BD,Raw,M
DQ,110,Joe Rocker,TX,HY,42,103.19,182.5,,,BD,Raw,M
DQ,110,Richard Baker #1,IA,HY,41,107.73,,227.5,,BD,Raw,M
DQ,125,Chuck Cookson,KS,HY,40,123.97,-170,300,,BD,Raw,M
DQ,125,Dave Ridlen,MO,HY,36,120.11,217.5,,,BD,Raw,M
DQ,140,Chris Spirrison,TX,HY,45,134.13,,,,BD,Raw,M
DQ,140,Joseph Behari,VA,HY,42,130.68,-217.5,,,BD,Raw,M
