Division,WeightClassKg,Place,Name,Team,BodyweightKg,Best3SquatKg,Best3BenchKg,Best3DeadliftKg,TotalKg,Equipment,Event,Sex,BirthDate
Boys,51.71,1,Leo Ruiz,Hidalgo Early College,50.98,136.08,104.33,154.22,394.63,Single-ply,SBD,M,
Boys,51.71,2,Gustavo Guerrero,Port Isabel,50.44,142.88,90.72,145.15,378.75,Single-ply,SBD,M,
Boys,51.71,3,Derek Perez #1,Rio Hondo,47.17,154.22,63.5,145.15,362.87,Single-ply,SBD,M,
Boys,51.71,4,Christian Lozano,Rio Hondo,51.71,129.27,77.11,142.88,349.27,Single-ply,SBD,M,
Boys,51.71,5,Diego Garcia #1,Rio Hondo,50.8,104.33,54.43,136.08,294.84,Single-ply,SBD,M,
Boys,51.71,DQ,Alvaro Valdez,Hidalgo Early College,50.35,102.06,,,,Single-ply,SBD,M,
Boys,55.79,1,Jaden Lopez,Port Isabel,55.79,208.65,104.33,206.38,519.36,Single-ply,SBD,M,
Boys,55.79,2,Juventino Guerrero,Hidalgo Early College,54.34,161.03,92.99,167.83,421.84,Single-ply,SBD,M,
Boys,59.87,1,Jesse Perez,Hidalgo Early College,56.97,113.4,72.57,124.74,310.71,Single-ply,SBD,M,
Boys,67.13,1,Jorge Guajardo,Port Isabel,62.23,219.99,127.01,226.8,573.79,Single-ply,SBD,M,
Boys,67.13,2,Jose Barrientos,Rio Hondo,67.13,197.31,113.4,208.65,519.36,Single-ply,SBD,M,
Boys,67.13,3,Tomas Arredondo,Rio Hondo,64.41,204.12,124.74,185.97,514.83,Single-ply,SBD,M,
Boys,67.13,4,Elek Hernandez,Rio Hondo,63.96,172.37,106.59,181.44,460.4,Single-ply,SBD,M,
Boys,67.13,5,Nicholas Morales,La Feria,66.86,165.56,120.2,170.1,455.86,Single-ply,SBD,M,
Boys,67.13,6,Leroy Benavides,La Feria,66.77,142.88,104.33,170.1,417.3,Single-ply,SBD,M,
Boys,67.13,7,Jose Perez,Hidalgo Early College,62.14,124.74,79.38,124.74,328.85,Single-ply,SBD,M,
Boys,74.84,1,Miguel Barrera,Hidalgo Early College,74.84,226.8,122.47,199.58,548.85,Single-ply,SBD,M,
Boys,74.84,2,Derrin Valdez,Port Isabel,71.58,208.65,115.67,199.58,523.9,Single-ply,SBD,M,
Boys,74.84,3,Ricardo Rodriguez,Port Isabel,72.21,170.1,127.01,181.44,478.54,Single-ply,SBD,M,
Boys,74.84,4,Damian Tamez,Raymondville,73.48,156.49,88.45,156.49,401.43,Single-ply,SBD,M,
Boys,74.84,5,Marc Perdomo,Port Isabel,73.48,138.35,92.99,136.08,367.41,Single-ply,SBD,M,
Boys,82.1,1,Evan Sanchez,La Feria,81.19,226.8,129.27,229.06,585.13,Single-ply,SBD,M,
Boys,82.1,2,Christian Ferrone,Port Isabel,81.83,224.53,122.47,226.8,573.79,Single-ply,SBD,M,
Boys,82.1,3,Christopher Guerrero,Raymondville,79.29,199.58,138.35,206.38,544.31,Single-ply,SBD,M,
Boys,82.1,4,Zac Tollet,Hidalgo Early College,81.47,192.78,122.47,183.7,498.95,Single-ply,SBD,M,
Boys,82.1,5,Eric Garza,La Feria,76.2,138.35,111.13,163.29,412.77,Single-ply,SBD,M,
Boys,89.81,1,Manuel Flores,Rio Hondo,88,226.8,163.29,190.51,580.6,Single-ply,SBD,M,
Boys,89.81,2,Ruben Campos,Hidalgo Early College,86.45,219.99,129.27,208.65,557.92,Single-ply,SBD,M,
Boys,89.81,3,Mathew Jimenez,Raymondville,87.72,192.78,147.42,210.92,551.11,Single-ply,SBD,M,
Boys,89.81,4,Misael Perez,La Feria,85.73,181.44,133.81,154.22,469.47,Single-ply,SBD,M,
Boys,99.79,1,Orlando Morales,La Feria,96.89,274.42,167.83,249.48,691.73,Single-ply,SBD,M,
Boys,99.79,2,Ezequiel Palestina,Port Isabel,97.79,219.99,115.67,204.12,539.77,Single-ply,SBD,M,
Boys,99.79,3,David Ornelas,Port Isabel,98.25,167.83,99.79,183.7,451.32,Single-ply,SBD,M,
Boys,99.79,4,Christopher Gonzalez,Port Isabel,92.17,151.95,95.25,163.29,410.5,Single-ply,SBD,M,
Boys,99.79,DQ,Aaron Cervantes,Hidalgo Early College,97.89,188.24,,,,Single-ply,SBD,M,
Boys,109.77,1,Antonio Marroquin,La Feria,108.5,283.5,183.7,260.82,728.02,Single-ply,SBD,M,
Boys,109.77,2,Kane Martinez,Hidalgo Early College,108.23,258.55,122.47,240.4,621.42,Single-ply,SBD,M,
Boys,124.74,1,Matthew Lopez,Rio Hondo,124.74,335.66,204.12,278.96,818.73,Single-ply,SBD,M,
Boys,124.74,2,Michael Garza,Rio Hondo,112.94,276.69,181.44,213.19,671.32,Single-ply,SBD,M,
Boys,124.74,3,Ruben Perez,Rio Hondo,117.48,272.16,167.83,213.19,653.17,Single-ply,SBD,M,
Boys,124.74,4,Giovanni Cruz,Hidalgo Early College,122.29,226.8,129.27,197.31,553.38,Single-ply,SBD,M,
Boys,139.71,1,Scott Atkinson,Rio Hondo,131.09,294.84,165.56,288.03,748.43,Single-ply,SBD,M,
Boys,139.71,2,Rudy Sanchez,La Feria,131.18,249.48,154.22,210.92,614.62,Single-ply,SBD,M,
Boys,139.71,3,Manuel Ramirez,Rio Hondo,126.1,226.8,136.08,217.72,580.6,Single-ply,SBD,M,
Boys,139.71,4,Seth Morales,La Feria,133.27,238.14,129.27,183.7,551.11,Single-ply,SBD,M,
Boys,139.71+,1,Nick Gomez,Raymondville,146.42,288.03,165.56,215.46,669.05,Single-ply,SBD,M,
Boys,139.71+,2,Miguel Chavarria,Rio Hondo,154.22,244.94,154.22,233.6,632.76,Single-ply,SBD,M,
Boys,,NS,Christopher Finona,Port Isabel,,,,,,Single-ply,SBD,M,
Boys,,NS,Lando Cantu,Raymondville,,,,,,Single-ply,SBD,M,
Boys,,NS,Kaleb Clinton,Port Isabel,,,,,,Single-ply,SBD,M,
